{
  "domain": "localhost:8080",
  "spanner": {
    "projectId": "waas-155118",
    "instance": "waasdb",
    "database": "development"
  },
  "jwt": {
    "secret": "mSV\":fl0q=Qji#h/XqgQqs@uEQ\"y`:\\>NC\\x$lYg!ctxPE@./WjpN:bAs2Nmc.'"
  },
  "mailgun": {
    "options": {
      "apiKey": "key-5345c35f30942a7a9a445cf807ccc9ff",
      "domain": "sandbox1de5db01e4eb4d578a80e6fd0e2d635d.mailgun.org"
    },
    "send": {
      "from": "WAAS Team <waas@sandbox1de5db01e4eb4d578a80e6fd0e2d635d.mailgun.org>"
    }
  }
}